{
  "title": "SpaCy",
  "description": "Courses related to Information Extraction with SpaCy",
  "courses": [
    {
      "course_id": "nlp-spacy",
      "title": "Linguistic Features",
      "description": "Introduction to NLP with SpaCy - Part I"
    },
    {
      "course_id": "rule-based-matching",
      "title": "Rule-based matching",
      "description": "Introduction to NLP with SpaCy - Part II"
    },
    {
      "course_id": "processing-pipelines",
      "title": "Processing Pipelines, Vectors and Similarity and Training Models",
      "description": "Introduction to NLP with SpaCy - Part III"
    },
    {
      "course_id": "saving-loading-visualizing",
      "title": "Saving, Loading and Visualizing",
      "description": "Introduction to NLP with SpaCy - Part IV"
    }
  ]
}
