{
  "title": "Introduction to Information Extraction with Spacy - Part 1/4",
  "description": "Linguistic Features",
  "difficulty": "Beginner",
  "time": "120",
  "details": {
    "steps": [
      {
        "title": "Step 1 - Introduction",
        "text": "step1.md"
      },
      {
        "title": "Step 2 - Part-of-speech tagging",
        "text": "step2.md"
      },
      {
        "title": "Step 3 - Dependency Parsing",
        "text": "step3.md"
      },
      {
        "title": "Step 4 - Iterating around the local tree",
        "text": "step4.md"
      },
      {
        "title": "Step 5 -  Visualizing dependencies",
        "text": "step5.md"
      },
      {
        "title": "Step 6 - Accessing entity annotations",
        "text": "step6.md"
      },
      {
        "title": "Step 7 - Setting entity annotations in Cython",
        "text": "step7.md"
      },
      {
        "title": "Step 8 - Entity Linking",
        "text": "step8.md"
      },
      {
        "title": "Step 9 - Tokenizer data",
        "text": "step9.md"
      },
      {
        "title": "Step 10 - Debugging the tokenizer V2.2.3",
        "text": "step10.md"
      },
      {
        "title": "Step 11 - Modifying existing rule sets",
        "text": "step11.md"
      },
      {
        "title": "Step 12 - Hooking an arbitrary tokenizer into the pipeline",
        "text": "step12.md"
      },
      {
        "title": "Step 13 - Aligning tokenization",
        "text": "step13.md"
      },
      {
        "title": "Step 14 - Splitting tokens",
        "text": "step14.md"
      },
      {
        "title": "Step 15 - Sentence Segmentation",
        "text": "step15.md"
      }
    ],
    "intro": {
      "text": "intro.md"
    },
    "finish": {
      "text": "finish.md"
    }
  },
  "environment": {
    "uilayout": "terminal"
  },
  "backend": {
    "imageid": "python:3.6"
  }
}